/* XPM */
static char *result[] = {
/* columns rows colors chars-per-pixel */
"64 64 107 2 ",
"   c #161515",
".  c #1D1C1B",
"X  c #201F1F",
"o  c #21211F",
"O  c #252523",
"+  c #2A2925",
"@  c #282728",
"#  c #2A2A28",
"$  c #32312D",
"%  c #373632",
"&  c #3A3935",
"*  c #3D3D3B",
"=  c #42423E",
"-  c #454441",
";  c #484743",
":  c #4B4A46",
">  c #4E4D49",
",  c #504F4B",
"<  c #53524E",
"1  c #565551",
"2  c #585753",
"3  c #5B5A56",
"4  c #5E5D59",
"5  c #605F5B",
"6  c #63625D",
"7  c #666561",
"8  c #686762",
"9  c #676863",
"0  c #6B6A66",
"q  c #6E6D69",
"w  c #706F6B",
"e  c #73726D",
"r  c #79756F",
"t  c #767571",
"y  c #787773",
"u  c #7B7A75",
"i  c #7E7D79",
"p  c #807F7A",
"a  c #83827D",
"s  c #89867F",
"d  c #88887F",
"f  c #868681",
"g  c #888782",
"h  c #8B8A85",
"j  c #8E8D89",
"k  c #908E86",
"l  c #908F8A",
"z  c #93928D",
"x  c #99968F",
"c  c #969591",
"v  c #989792",
"b  c #979891",
"n  c #9B9B95",
"m  c #9E9D99",
"M  c #A19E96",
"N  c #A09F9A",
"B  c #A3A39D",
"V  c #A8A79F",
"C  c #A7A89F",
"Z  c #A8A99F",
"A  c #A6A5A1",
"S  c #A8A7A2",
"D  c #A7A8A2",
"F  c #ABABA5",
"G  c #AEADA9",
"H  c #B0AEA7",
"J  c #B0AFAA",
"K  c #AFB0A7",
"L  c #AFB0A8",
"P  c #B3B3AC",
"I  c #B8B6AF",
"U  c #B6B6B1",
"Y  c #B8B7B3",
"T  c #BBBBB4",
"R  c #BEBDB9",
"E  c #C0BFB7",
"W  c #C0BFBA",
"Q  c #BFC0BD",
"!  c #C0C0B7",
"~  c #C3C3BC",
"^  c #C8C7BF",
"/  c #C8C8BE",
"(  c #C6C5C2",
")  c #C8C7C2",
"_  c #CBCBC4",
"`  c #C8C7C8",
"'  c #CDCDCA",
"]  c #D2CFC7",
"[  c #D0CFCA",
"{  c #D3D3CC",
"}  c #D8D6CF",
"|  c #D4D4D2",
" . c #D8D7D7",
".. c #DBDAD3",
"X. c #DDDDDB",
"o. c #E0DFDA",
"O. c #E3E2DB",
"+. c #E5E4E3",
"@. c #E8E7E2",
"#. c #EBEBE6",
"$. c #EDEDEC",
"%. c #F0EFEC",
"&. c #EFF0EF",
"*. c #F2F2EF",
"=. c #F4F4F4",
"-. c #F9F8F6",
";. c #FFFFFF",
/* pixels */
";.;.;.;.;.;.;.;.;.;.;.;.;.;.;.;.;.;.;.;.;.;.;.;.-.;.;.+.U h i t e i f v ` =.-.;.-.;.;.;.;.;.;.;.;.;.;.;.;.;.;.;.;.;.;.;.;.;.;.;.",
";.;.;.;.;.;.;.;.;.;.;.;.;.;.;.;.;.;.;.;.;.;.;.;.;.X.f t l S P ` R ( _ U A A ' -.;.;.;.;.;.;.;.;.;.;.;.;.;.;.;.;.;.;.;.;.;.;.;.;.",
";.;.;.;.;.;.;.;.;.;.;.;.;.;.;.;.;.;.;.;.;.;.;.;.B 1 c R T ) G T U R T T ( ~ G U +.;.;.;.;.;.;.;.;.;.;.;.;.;.;.;.;.;.;.;.;.;.;.;.",
";.;.;.;.;.;.;.;.;.;.;.;.;.;.;.;.;.;.;.;.;.;.;.h 5 U _ R B j i q f f j j z U Y R A  .;.;.;.;.;.;.;.;.;.;.;.;.;.;.;.;.;.;.;.;.;.;.",
";.;.;.;.;.;.;.;.;.;.;.;.;.;.;.;.;.;.;.-.;.=.y i | R U c 4 1 7 v n n n c 6 t p P ~ P X.;.-.;.;.;.;.;.;.;.;.;.;.;.;.;.;.;.;.;.;.;.",
";.;.;.;.;.;.;.;.;.;.;.;.;.;.;.;.;.;.;.;.&.q c } R A e 7 i 7 u T P F R ~ w q i i J [ T X.;.;.;.;.;.;.;.;.;.;.;.;.;.;.;.;.;.;.;.;.",
";.;.;.;.;.;.;.;.;.;.;.;.;.;.;.;.;.-.;.$.0 D ..T G 3 y c P A q F F N G A j T T D u J _ R X.;.;.;.;.;.;.;.;.;.;.;.;.;.;.;.;.;.;.;.",
";.;.;.;.;.;.;.;.;.;.;.;.;.;.;.;.;.;.&.w G _ R ~ w 3 v ( A U u n T G A B F G A ~ C 0 ~ ~ U +.;.;.;.;.;.;.;.;.;.;.;.;.;.;.;.;.;.;.",
";.;.;.;.;.;.;.;.;.;.;.;.;.;.;.;.;.$.i F ~ A ( j 9 u a n C ~ z u A F F z F M A T J i z ( ) R +.;.;.;.;.;.;.;.;.;.;.;.;.;.;.;.;.;.",
";.;.;.;.;.;.;.;.;.;.;.;.;.;.-.;.$.d Y Y n F P 0 B T B e z P N a m z G N c G S S S l q j T T T #.;.-.;.;.;.;.;.;.;.;.;.;.;.;.;.;.",
";.;.;.;.;.;.;.;.;.;.;.;.;.;.;.=.j Q _ m m _ P 0 R F F F e g K d z P A F G G A D J W j j P J R ` $.;.;.;.;.;.;.;.;.;.;.;.;.;.;.;.",
";.;.;.;.;.;.;.;.;.;.;.;.;.;.=.v T _ I T ' S 7 2 Z P Q I m z Z a k / B ! S S S n m ` f z R B m R ..$.;.;.;.;.;.;.;.;.;.;.;.;.;.;.",
";.;.;.;.;.;.;.;.;.;.;.;.;.-.n W _ P _ _ f 1 1 s T K T F C z z M d P A U u F n c A P 5 3 F T m M { Q #.;.;.;.;.;.;.;.;.;.;.;.;.;.",
";.;.;.;.;.;.;.;.;.;.;.;.=.n R ) P ~ I 6 1 e < C d g B Q B ~ x C A P F c p A A A G P h < < v G v Y { T $.;.;.;.;.;.;.;.;.;.;.;.;.",
";.;.;.;.;.;.;.;.;.;.;.-.j G ..P R V 1 > n ' 1 6 < < B _ P Q ~ S P P P m F z U P a B A < 6 - e T / ~ { ( =.;.;.;.;.;.;.;.;.;.;.;.",
";.;.;.;.;.;.;.;.;.;.-.j F ~ T ~ n > q 4 q l < 3 u T I B P P K F P G A B z n P g > < 6 > _ y - p } ~ ' } ' =.;.;.;.;.;.;.;.;.;.;.",
";.;.;.;.;.;.;.;.;.;.h N ( T ~ N 1 < ) S > > 7 P ' R F m v H F S n z z v D L M K ~ q < 1 F 7 6 = f } ~ { ' ~ -.;.;.;.;.;.;.;.;.;.",
";.;.;.;.;.;.;.;.;.h v R v W U 2 7 4 q t = i ' ) F J T F P S P U F B L m z m M Q T ( n : , < F i & n } Q / / ~ -.;.;.;.;.;.;.;.;.",
";.;.;.;.;.;.;.;.c v ( P T _ w * ( c 1 - u ' J A B B F F c p q t u u j z n B F M c P _ G 4 > U i : : K Q ! ~ / / -.;.;.;.;.;.;.;.",
";.;.;.;.;.-.;.z g _ ~ P F z 6 7 u y : e ' B N G R B s 0 6 6 q r e w q 6 0 u n B M B B ) F ; ; : e < 6 Q P P L Q ( ;.;.-.;.;.;.;.",
";.;.;.;.-.;.c i  .S a 9 9 < u j 3 < < _ F n P J n y e e p x M B T Z x k a 6 r b ~ B z n ~ m > 1 } e ; j F C F I T F -.;.;.;.;.;.",
";.;.;.-.;.D <  .~ y 3 m R Z n L 7 < J ~ V V U g e p k s H k h v n M x n n d r e f P D a B ~ t : 9 > 3 6 P K m B P P G ;.;.;.;.;.",
";.;.;.;.` = T T 4 0 b z 6 T ~ 5 3 i { B C T h r p B B p o.) T M A M P ^ h h B l 7 u m j m F F < < e z > i a n P F T B U ;.;.;.;.",
";.;.;.&.* j _ < a F ~ v z 3 R y 4 T ~ K P m w p Z T P g U 0 n ~ | ..T u s B z j a 0 h G B J R l * b ~ s z i 7 s F m Y v | ;.;.;.",
";.-.;.t - ) t 9 D a ~ F B u u m n { T P P e u n F ! Z h J p y 6 5 q e x x C S v P w 6 z F P Y R < > K ~ k B a 6 k P N P T -.;.;.",
";.;.' O A Q > f c z z ~ F K 6 ~ U P G F x 0 h Z K _ P g P g _ K B M I V h ] u a u e 8 i F F G J a s K e w B n 6 4 m F F ( X.;.;.",
"-.;.9 % ( h < h K Z b F _ F 6 n G u z F s u V P T / B g M g F H H I T w U J u B z v k 6 z P F n z ~ u u z K ~ B N y D m f n -.;.",
";.$.@ 0 ( < t U ~ P Z z F ] Z u P j G m 0 k T _ ~ / F v M p B z k M V w U F k M F T Z 0 s P n z v C 3 a F } z w j p 0 z i c +.;.",
";.R   B Y 7 n u B T Q P F m R a G P F g e B ~ ] _ _ S z I v ~ W T A k w j U a S x m B x w G z f J 9 0 B _ F e w c f 4 R P P U ;.",
";.j X U v e v a G h g G h S z a n U N i h P ] } } ~ v x O.S z z m { O.v 3 B S M I C C Z t n G A j y v ^ C f h B | q 0 A A m N -.",
";.e O T n u z t m z z f a T h n t n A 0 p ~ ) } .._ H g h t z h r 1 n *.B 2 u j v P ^ ~ e n U R e F T s e n U T _ n 2 i R P N &.",
";.4 @ Y c u D u F z B B z S z m h v m t z ~ ] ....] ~ a S / ~ ! B M 3 I -.g a M I ~ _ W w v B F q B f m P 0 t G e n h 9 U D m $.",
";.9 # ~ F 2 I r b _ / K n b K d D F D a z / _ ....{ Q / { ~ ] } P P s q #.~ w F _ ] / K y B K a 9 z e 9 j 3 i n 7 4 g q G A m +.",
";.u # I P 4 0 Q K B n k M P M i F m F d z Q { [ _ / Q _ ~ ..O.] O.T x w O.O.p b _ o.{ B w Z F B e z h 4 g t f m n 7 f 0 J G j &.",
";.n . B Q p 6 K p l Z B Q K q B l n B h M I ] ] / Q K F I [ } } O.] B 6 ..O.m n ..{ { M i Z Z Y e m C 0 n y 0 n g i f 7 U U l ;.",
";.' o k Q a 6 ! b K K ! B b y Q c D b k z _ _ { / B m K d I } ..O.{ V e @.@.j Z ..} / b b P z F i h B l s p h C m A < e W D N ;.",
";.-.* t ! K w Z K Q } M I p d L m A h m a L ~ _ I d ~ } n J { } ..~ C u #.O.u K } { I i z I z k m w z B k h z R ~ 3 r F T v ` ;.",
"-.;.j = ! Q B < q / Q M I 0 m 4 A L A F j d T ~ Z b I B z Z _ O.O.P x u *._ u P { ] m q K K K n J w y M ) M k k P 4 e Q G n $.;.",
";.;.&.* b Q Q d 4 r K Z y n u + A Y G D C n B Q n l P 9 s C R { ~ K d u ;.N s } ..! j a { B Q Q W j 6 s T U a z R 7 m P v U ;.-.",
";.-.;.D = Q I m u 9 L I D I i 4 < T B F K k d B K a Y B z n V F x x 0 ~ ..6 F [ { z q I Q K _ P 3 S 6 h M ..P _ m j U A z =.;.;.",
";.;.-.;.q w Q m Q n w z p y ' u $ g A m A B j c T S s / C f f a h 0 T ..q k { ! B y m _ F ~ ..a + U B a R ~ a i t G K D | ;.;.;.",
";.;.;.;.=.7 B A L ~ D b u 5 9 2 > ; D A ( P B f k P m 0 F T F P P ~ B e n ] ~ b 6 k Q B T } I = 0 n T { ) e 3 8 B A M ` ;.;.;.;.",
";.;.;.;.;.+.a L M M T O.T w 6 c Y # q ~ P ~ G B h a z z a i j g a h u H F Z a r B Q C Q ~ ..5 < z P , 0 4 < h T F D ~ -.;.;.;.;.",
";.;.;.;.-.;. .h Y K K M P n = m c 1 > a T R ( c Z B w u n n j a d F P z a u a P ! Z ! / O.u ; u 2 4 4 j h m F B z ~ ;.;.;.;.;.;.",
";.;.;.;.;.-.;.| z Y B n m T q 1 = p t $ z / I T z Z F n g i y q r r t r h G / P B ! / ..h = 6 &.g < j Y G A B b U -.;.;.;.;.;.;.",
";.;.;.;.;.;.-.;.` j P B A G G 0 1 ) f > $ s ~ ~ T B z m P ( W D L P U Q T Y Z K ! { { d = 6 < C 0 q T n C z m ~ -.;.;.;.;.;.;.;.",
";.;.;.;.;.;.;.;.;.) z U z B Q c < 7 ; i w & 6 K _ T A n l j n n N L D m B T Q { O./ 6 = e O.r = 7 Y F n C c T ;.;.;.;.;.;.;.;.;.",
";.;.;.;.;.;.;.;.;.;.` j F n B T j 9 2 { P 2 < 2 c P G m v m P B B j a F Y Q ] Q d = , 6 6 _ e 4 P G m n j R ;.;.;.;.;.;.;.;.;.;.",
";.;.;.;.;.;.;.;.;.;.;.) z P m j n l , q 1 6 B t ; g U c v B S G F U z h P n a 1 : : j @.3 ; 5 P G n m f D ;.;.;.;.;.;.;.;.;.;.;.",
";.;.;.;.;.;.;.;.;.;.-.;.R j z i j J n 2 * j $.n F G A M m M f f M h P G C s > 6 B 0 y D < t Y B S A s A ;.;.;.;.;.;.;.;.;.;.;.;.",
";.;.;.;.;.;.;.;.;.;.;.;.;.R f P F j G U t 6 N P S m h h c A l l i t u F S ( ` a _ n < < a Q F N A z m =.;.;.;.;.;.;.;.;.;.;.;.;.",
";.;.;.;.;.;.;.;.;.;.;.;.;.;.R n Y D F P F q S m c B f j g j n v s f g B S z F { f 1 f I ~ F D B n n =.;.;.;.;.;.;.;.;.;.;.;.;.;.",
";.;.;.;.;.;.;.;.;.;.;.;.;.-.;.Q v R A P v i S l n w p z l g m n q A n 9 v c z P z u _ U Z M N b A $.;.-.;.;.;.;.;.;.;.;.;.;.;.;.",
";.;.;.;.;.;.;.;.;.;.;.;.;.;.;.;.R n T P P q v n 6 p G n f l z B N n A c 7 m m B n i F c Z B n N #.;.;.;.;.;.;.;.;.;.;.;.;.;.;.;.",
";.;.;.;.;.;.;.;.;.;.;.;.;.;.;.;.;.U M T R B q e l J m n 8 t A S e f T G j 2 B R i g n c m D A +.;.;.;.;.;.;.;.;.;.;.;.;.;.;.;.;.",
";.;.;.;.;.;.;.;.;.;.;.;.;.;.;.;.;.;.G B W _ c f R v h f 5 F F S g t G n B u t u t A z c N B +.;.-.;.;.;.;.;.;.;.;.;.;.;.;.;.;.;.",
";.;.;.;.;.;.;.;.;.;.;.;.;.;.;.;.;.;.;.G n R n f h c n 4 q F m A m 8 j B m G 5 y G v v N v  .;.-.;.;.;.;.;.;.;.;.;.;.;.;.;.;.;.;.",
";.;.;.;.;.;.;.;.;.;.;.;.;.;.;.;.;.;.;.;.G v P G y i t 9 j B h j F 0 a A B h q J c v A t ' ;.;.;.;.;.;.;.;.;.;.;.;.;.;.;.;.;.;.;.",
";.;.;.;.;.;.;.;.;.;.;.;.;.;.;.;.;.;.;.;.;.P z A D i 4 > j j j z B u 5 0 f h C z v m q ) ;.-.;.;.;.;.;.;.;.;.;.;.;.;.;.;.;.;.;.;.",
";.;.;.;.;.;.;.;.;.;.;.;.;.;.;.;.;.;.;.;.;.;.U h P F n i 7 e i i i 3 t t j B c v A 9 ' ;.;.;.;.;.;.;.;.;.;.;.;.;.;.;.;.;.;.;.;.;.",
";.;.;.;.;.;.;.;.;.;.;.;.;.;.;.;.;.;.;.;.;.;.;.( f A N S A v z j n A A m n l B j q X.;.;.;.;.;.;.;.;.;.;.;.;.;.;.;.;.;.;.;.;.;.;.",
";.;.;.;.;.;.;.;.;.;.;.;.;.;.;.;.;.;.;.;.;.;.-.;. .c c j z N m c n A v n M A h n $.;.-.;.;.;.;.;.;.;.;.;.;.;.;.;.;.;.;.;.;.;.;.;.",
";.;.;.;.;.;.;.;.;.;.;.;.;.;.;.;.;.;.;.;.;.;.;.;.;.-.Q z h n v m m G A n v G | ;.;.-.;.;.;.;.;.;.;.;.;.;.;.;.;.;.;.;.;.;.;.;.;.;.",
";.;.;.;.;.;.;.;.;.;.;.;.;.;.;.;.;.;.;.;.;.;.;.;.-.;.;.-. .Y A N c h g P  .-.;.;.;.;.;.;.;.;.;.;.;.;.;.;.;.;.;.;.;.;.;.;.;.;.;.;."
};
